<svg xmlns="http://www.w3.org/2000/svg" width="933" height="921" fill="none">
  <g clip-path="url(#clip0)">
    <ellipse cx="466.5" cy="460.5" fill="#7F9CF5" rx="466.5" ry="460.5"/>
    <path fill="#A36138" d="M610 314l-17 3-19 26-30-5-35-21-27 15-57-28c-22 25-31 21-46 4-39 31-59 35-53 0-33 25-37 18-40 0-48 31-56 19-59-7-4-26-58 23-58 23l-21-10-30 14 15 291 20 13 11-5h20l6 1-2-220c0-16 1-20 20-25l324 3 3 1c17-1 21 5 25 19l2 199v27h22l7-6v-12l14-16V472l-2-66c5-13 6-20 21-21l83-8c15-2 18 0 18 10v178l7 18 4 8 6 12 6 11 6 9 5 9 8 17 13 22 6 27-1-98 4-9h6l-6-283-23-4-23 17h-65l-16 8-17-8-47-41 28 28 2 13-18-7z"/>
    <path fill="#A36138" d="M412 123c-9 10-14 1-37 16-19 19-62 71-132 120-29 19-62 38-95 55l21 10s54-49 58-23c3 26 11 38 59 7 3 18 7 25 40 0-6 35 14 31 53 0 15 17 24 21 46-4l57 28 27-15 35 21 30 5 19-26-25-9-118-90-52-47 46 26-25-25-9-8v-12l2-29z"/>
    <path fill="#A36138" d="M450 218l118 90 25 9 17-3 18 7-2-13-28-28 47 41 17 8 16-8h65l23-17 23 4 22-17-16-18-39-21-22-19-15-20h-24l-102-5-125-8c-19-1-23 3-18 18z"/>
    <path fill="#A36138" d="M719 213l-7-14v-9l11-13v-13l-14-7-20 5-16 2 3 13-11 13-60-6-172-31c-14-2-18 2-14 19l25 25 24 3 125 8 102 5h24zM811 291l-22 17 6 283 13-8c10-6 12-10 12-18l-3-248-6-26zM651 721l135-23-6-27-137 27 8 23z"/>
    <path fill="#A36138" d="M643 698l137-27-13-22-133 24 9 25z"/>
    <path fill="#A36138" d="M767 649l-8-17-5-9-130 19 10 31 133-24z"/>
    <path fill="#A36138" d="M754 623l-6-9-6-11-126 16 8 23 130-19z"/>
    <path fill="#A36138" d="M605 598l8 13 3 8 126-16-6-12-4-8-127 15z"/>
    <path fill="#A36138" d="M613 611l-8-13-14 16v12l8 30 22 65 13 11h14l3-11-8-23-9-25-10-31-8-23-3-8zM153 632l4 96h27V627h-20l-11 5zM190 628l-6-1v101h37V628h-31zM221 628v100h36V628h-36zM257 628v100l33 1V629l-33-1zM290 629v100h35V629h-35zM325 629v100h30v-99l-30-1zM355 630v99h31v-99h-31zM409 630v99h30v-98l-30-1zM386 630v99h23v-99h-23zM439 631v98h27v-98h-27zM466 631v98l32 1v-99h-32zM562 632l-64-1v99h64v-98zM584 730v-98h-22v98h22z"/>
    <path fill="#A36138" d="M188 408l2 220h67l33 1h35l30 1h54l30 1h59l64 1v-27l-2-199c-4-14-8-20-25-19l-3-1-324-3c-19 5-20 9-20 25zM725 565V387c0-10-3-12-18-10l-83 8c-15 1-16 8-21 21l2 66v126l127-15-7-18z"/>
    <path stroke="#050306" stroke-linecap="round" stroke-linejoin="round" stroke-width="15" d="M64 349l54-21m257-189c23-15 28-6 37-16l-2 29m-35-13c-19 19-62 71-132 120-29 19-62 38-95 55m227-175c-3-10-7-15-13-24m48 37v12l9 8m-9-20h15l8 1m11 44l-46-26 52 47m-6-21l24 3m-24-3l-25-25m31 46l118 90 25 9m-143-99c-5-15-1-19 18-18m125 117l-12-23-30-32m42 55l17-3 18 7-2-13-28-28 47 41 17 8 16-8m-85-4l-19 26-30-5-35-21m169 4h41m-41 0v-7l-33-34m121 24l-23 17h-24m47-17l23 4m-23-4l-54-37m77 41l22-17m-22 17l6 283m16-300l-16-18-39-21-22-19-15-20m92 78l6 26 3 248c0 8-2 12-12 18l-13 8m-76-378l-7-14v-9l11-13v-13l-14-7-20 5-16 2 3 13-11 13-60-6-172-31m286 60h-24l-102-5-125-8m215 87l36 27v7M433 153c-14-2-18 2-14 19m-40 58l-9-30 12-10 18 12 103 102 6 13m0 0l-27 15-57-28c-22 25-31 21-46 4-39 31-59 35-53 0-33 25-37 18-40 0-48 31-56 19-59-7-4-26-58 23-58 23l-21-10m0 0l-30 14m662 343l6 27m-6-27l-137 27m137-27l-13-22m-162-51V472l-2-66c5-13 6-20 21-21l83-8c15-2 18 0 18 10v178l7 18m-127 15l8 13 3 8m-11-21l127-15m-127 15l-14 16v12m60 95l135-23m-135 23l-8-23m8 23l-3 11h-14l-13-11-22-65-8-30m195 72l-1-98 4-9h6M643 698l-9-25m0 0l133-24m-133 24l-10-31m143 7l-8-17-5-9m-130 19l130-19m-130 19l-8-23m138 4l-6-9-6-11m-126 16l126-16m0 0l-6-12-4-8m-141 43l-7 6m0 0v98h-22m22-98h-22m-409 0l4 96h27m-31-96l-20-13-15-291m35 304l11-5h20m6 1l-2-220c0-16 1-20 20-25l324 3 3 1c17-1 21 5 25 19l2 199v27m-372-4l-6-1m6 1h31m341 4l-64-1m64 1v98M184 627v101m0 0h37m0 0V628m0 100h36m-36-100h36m0 0v100m0-100l33 1m-33 99l33 1m0 0V629m0 100h35m-35-100h35m0 0v100m0-100l30 1m-30 99h30m0-99v99m0-99h31m-31 99h31m0 0v-99m0 99h23m-23-99h23m0 0v99m0-99l30 1m-30 98h30m0 0v-98m0 98h27m-27-98h27m0 0v98m0-98h32m-32 98l32 1m0 0v-99m0 99h36m-1-98l1 98m0 0h28"/>
    <path fill="#DEAF48" d="M226 556l-2-13v-25l70-49 64 10 4 21-6 18 4 17-2 23-11 17-18 8 3 12-8 7h-25l-22-1-7-8-5-19-5-2-17-5-10-2-7-9zM408 539l-5-11 5-33 78-23 33 9 4 47-5 23-2 4-9 15h6l12 18-2 7-5-3-11-4-14 2-9 5-6 14-34-1-3-7-14-9-9-7-10-13v-33z"/>
    <path stroke="#000" stroke-linecap="round" stroke-linejoin="round" stroke-width="5" d="M329 583l-19 1-36-7-9-3m64 9l18-8 11-17 2-23-4-17 6-18-4-21-64-10-70 49v25l2 13 7 9 10 2 17 5 5 2m64 9l3 12-8 7h-25l-22-1-7-8-5-19m162 18l-9-7-10-13v-33l-5-11 5-33 78-23 33 9 4 47-5 23-2 4-9 15m-80 22h20l23-6 16-6 21-10m-80 22l14 9 3 7 34 1 6-14 9-5 14-2 11 4 5 3 2-7-12-18h-6"/>
    <path fill="#120C00" d="M419 530c-3-2-3-5-2-8 1-4 9-6 11-2 2 3 0 6-2 8s-5 3-7 2zM452 525c-2-2-2-5 0-7 2-5 8-4 13-1 2 0 3 1 4 3 1 3 0 6-2 8-3 2-6 2-9 2-3-1-5-2-6-5zM426 564c-3-3-9-8-5-10 5-4 10 9 13 10 6 3 22 1 29-1l8-9c2-3 3-6 7-6 8 0-7 14-10 16l-7 4c-8 2-17 2-24 1-5 0-8-2-11-5z"/>
    <path fill="#120C00" d="M438 551l-5-4v-3c1-3 4-2 6-2 3 0 6-1 7 2v5c-1 2-5 3-8 2zM300 551c-2-2-3-4-1-5 1-2 6 0 6 0l10 5c5 2 9 3 15 1 3-2 8-11 13-8 5 4-7 13-10 15h-15l-10-3c-3-2-7-2-8-5zM317 533v6c1 2 4 2 6 2l8-3 2-4c0-2-1-4-3-4-2-1-3 0-5 1-3 0-6-1-8 2z"/>
    <path fill="#E7E6E4" d="M199 596l51-24h11l6 6 3 15 7 8 47 2 9-7v-12l11-4 21 25 9 12 4 4 12-4 6-8 19-13 9-3 17 8 3 8h30l6-1 3-12 8-6 13-2 11 2 10 6 4 9v9l2 12h-95l-48-3-29-1-49-1H195v-13l4-12z"/>
    <path stroke="#000" stroke-linecap="round" stroke-linejoin="round" stroke-width="5" d="M378 621l-4-4-9-12-21-25-11 4v12l-9 7-47-2-7-8-3-15-6-6h-11l-51 24-4 12v13h115m68 0l12-4 6-8 19-13 9-3 17 8 3 8h30l6-1 3-12 8-6 13-2 11 2 10 6 4 9v9l2 12h-95l-48-3m-10-2c-3 1-20 2-68 0m0 0l78 2m-3-4l3 4m-129 0h51"/>
    <path fill="#010101" d="M250 448c-12 4-20 5-29 13-8 6-13 9-16 18l-3 9-3 15v6c1 9 4 14 10 20 4 4 7 4 12 8 3 3 3 6 7 8 7 5 20 13 22 4v-6c1-4 3-5 5-8 1-4 3-6 3-10 0-5-5-8-3-12 1-6 2-12 8-10h15l9-5s5-7 10-8h9c7 7 19 3 19 3s9-10 14-9 7 9 15 9l9 10c4-1 6-4 11-10 3-5 5-8 6-22-2-8-7-14-20-19-13-6-17 0-27-4-16-5-25-5-41-5-17-1-26 0-42 5z"/>
    <path fill="#120C00" d="M302 518c-5-1-6-5-7-10v-4c1-3 4-2 8-2 3 0 7-1 9 2v7l-3 6c-2 1-5 2-7 1zM335 515c-4-2-5-8-2-11 3-4 9-4 12 0 2 3 1 7-1 10-3 2-6 3-9 1z"/>
    <path fill="#010101" d="M391 511c1 7 2 14 9 16h6c2-1 0-4 2-5 1-2 4-1 6-2l4-6c7-9 16-6 26-10 8-4 11-9 20-11 8-2 13-3 21-1 6 0 11 0 15 5 3 3 3 6 4 11 0 6-3 9-4 16 0 4-3 7 0 11s7 1 12 3l5 4s-1 8 2 13c6 9 19-23 19-23s9-31 5-50c-5-16-9-26-22-35-13-10-23-12-39-11-13 0-20 3-32 7-9 3-21 10-21 10l-29 20c-11 7-8 11-9 20-2 7-2 11 0 18z"/>
  </g>
  <defs>
    <clipPath id="clip0">
      <path fill="#fff" d="M0 0h933v921H0z"/>
    </clipPath>
  </defs>
</svg>
